{
   "feature_config":[
      {
         "id":"avl_uw-_sum_l1_p2_t1_agg1",
         "primary_feature":"availability",
         "method":{
            "is_reliable":0,
            "technique":"weighted",
            "is_imputed":0,
            "impute_method": "",
            "agg_func": "sum"
         },
         "n_period_agg": 1,
         "loc_hierarchy_id":1,
         "loc_hierarchy_list":[
            "IST_Cluster",
            "Store_Grade"
         ],
         "product_hierarchy_id":2,
         "product_hierarchy_list":[
            "Item Category"
         ],
         "time_hierarchy_id":1,
         "time_hierarchy_list":[
            "Week",
            "Year"
         ]
      },
      {
         "id":"avl_rsm_mean_l1_p3_t1_agg1",
         "primary_feature":"availability",
         "method":{
            "is_reliable":1,
            "technique":"simple",
            "is_imputed":1,
            "impute_method": "mean_ag",
            "agg_func": "mean"
         },
         "n_period_agg": 1,
         "loc_hierarchy_id":1,
         "loc_hierarchy_list":[
            "IST_Cluster",
            "Store_Grade"
         ],
         "product_hierarchy_id":3,
         "product_hierarchy_list":[
            "Product Group",
            "AG"
         ],
         "time_hierarchy_id":1,
         "time_hierarchy_list":[
            "Week",
            "Year"
         ]
      },
      {
         "id":"ros_us-_sum_l1_p4_t1_agg2",
         "primary_feature":"ros",
         "method":{
            "is_reliable":0,
            "technique":"simple",
            "is_imputed":0,
            "impute_method": "",
            "agg_func": "mean"
         },
         "n_period_agg": 2,
         "loc_hierarchy_id":1,
         "loc_hierarchy_list":[
            "IST_Cluster",
            "Store_Grade"
         ],
         "product_hierarchy_id":4,
         "product_hierarchy_list":[
            "AG"
         ],
         "time_hierarchy_id":1,
         "time_hierarchy_list":[
            "Week",
            "Year"
         ]
      },
      {
         "id":"sales_us-_sum_l2_p5_t1_agg4",
         "primary_feature":"sales",
         "method":{
            "is_reliable":0,
            "technique":"simple",
            "is_imputed":0,
            "impute_method": "",
            "agg_func": "sum"
         },
         "n_period_agg": 4,
         "loc_hierarchy_id":2,
         "loc_hierarchy_list":[
            "IST_Cluster"
         ],
         "product_hierarchy_id":5,
         "product_hierarchy_list":[
            "Product Group"
         ],
         "time_hierarchy_id":1,
         "time_hierarchy_list":[
            "Week",
            "Year"
         ]
      }
   ]
}